<svg width="20" height="20" viewBox="0 0 20 20" fill="none" xmlns="http://www.w3.org/2000/svg">
<path d="M14.4229 4.55781C12.8142 4.55781 11.5057 5.8666 11.5057 7.47502C11.5057 7.69072 11.6804 7.86582 11.8965 7.86582C12.1126 7.86582 12.2873 7.69072 12.2873 7.47502C12.2873 6.29746 13.2457 5.33941 14.4229 5.33941C15.6002 5.33941 16.5585 6.29746 16.5585 7.47502C16.5585 8.65258 15.6002 9.61063 14.4229 9.61063H1.05408C0.838338 9.61063 0.663281 9.78569 0.663281 10.0014C0.663281 10.2172 0.838338 10.3922 1.05408 10.3922H14.4229C16.0317 10.3922 17.3401 9.08344 17.3401 7.47502C17.3401 5.8666 16.0317 4.55781 14.4229 4.55781Z" fill="#8FB2C5" stroke="#8FB2C5" stroke-width="0.15"/>
<path d="M3.05408 8.49621H8.4227C9.68311 8.49621 10.7083 7.47102 10.7083 6.21061C10.7083 4.95019 9.68311 3.925 8.4227 3.925C7.16228 3.925 6.13709 4.95019 6.13709 6.21061C6.13709 6.42635 6.31215 6.60141 6.52789 6.60141C6.74364 6.60141 6.91869 6.42635 6.91869 6.21061C6.91869 5.38136 7.59346 4.7066 8.4227 4.7066C9.25194 4.7066 9.9267 5.38136 9.9267 6.21061C9.9267 7.03985 9.25194 7.71461 8.4227 7.71461H3.05408C2.83834 7.71461 2.66328 7.88967 2.66328 8.10541C2.66328 8.32116 2.83834 8.49621 3.05408 8.49621Z" fill="#8FB2C5" stroke="#8FB2C5" stroke-width="0.15"/>
<path d="M14.7913 15.2927C13.9621 15.2927 13.2873 14.618 13.2873 13.7887C13.2873 13.573 13.1126 13.3979 12.8965 13.3979C12.6804 13.3979 12.5057 13.573 12.5057 13.7887C12.5057 15.0491 13.5312 16.0743 14.7913 16.0743C16.0514 16.0743 17.0769 15.0491 17.0769 13.7887C17.0769 12.5283 16.0514 11.5031 14.7913 11.5031H4.05408C3.83834 11.5031 3.66328 11.6782 3.66328 11.8939C3.66328 12.1097 3.83834 12.2847 4.05408 12.2847H14.7913C15.6206 12.2847 16.2953 12.9595 16.2953 13.7887C16.2953 14.618 15.6206 15.2927 14.7913 15.2927Z" fill="#8FB2C5" stroke="#8FB2C5" stroke-width="0.15"/>
</svg>
